Google Data Analytics Capstone
…
Convert ride_length, ride_length_m, day and month to numeric so that
calculations can be executed.

## [1] TRUE

## [1] TRUE

## [1] TRUE

## [1] TRUE

spotted some negative values in the ride_length:

## # A tibble: 147 x 20
##    ride_id          rideable_type started_at          ended_at           
##    <chr>            <chr>         <dttm>              <dttm>             
##  1 FC1EFEF4475D7F56 classic_bike  2021-01-09 15:42:45 2021-01-09 15:41:02
##  2 B1235D38EB2F8A9E electric_bike 2021-01-06 18:33:12 2021-01-06 18:31:07
##  3 F79335E3A77A57B5 electric_bike 2021-03-29 15:41:21 2021-03-29 15:41:20
##  4 5D2797A8FFA71B49 classic_bike  2021-03-13 18:02:58 2021-03-13 18:02:57
##  5 BC53ECCBC76278FD classic_bike  2021-04-07 16:11:33 2021-04-07 16:11:26
##  6 209C097828F9CD43 electric_bike 2021-04-27 17:13:44 2021-04-27 17:11:32
##  7 6E81034B446FC2FD electric_bike 2021-04-23 09:43:39 2021-04-23 09:43:29
##  8 318DD838369AEA61 classic_bike  2021-04-30 10:56:32 2021-04-30 10:56:30
##  9 8ADD13BD8F6A7567 classic_bike  2021-04-17 12:43:36 2021-04-17 12:43:27
## 10 3EC1B5A4D4B9AB99 classic_bike  2021-05-05 16:10:04 2021-05-05 16:09:51
## # ... with 137 more rows, and 16 more variables: start_station_name <chr>,
## #   start_station_id <chr>, end_station_name <chr>, end_station_id <chr>,
## #   start_lat <dbl>, start_lng <dbl>, end_lat <dbl>, end_lng <dbl>,
## #   member_casual <chr>, date <date>, month <dbl>, day <dbl>, year <chr>,
## #   day_of_week <chr>, ride_length <dbl>, ride_length_m <dbl>
…
